992
-8 -16 -24 -32 -40 -48 776
992
160 -200 616
-8 -16 952
-640 160 -176
424 -80 472
-160 -160 -160 -160 -160 -152
512 -120 -128 208
-72 280 -104 512
-80 -160 -240 -288 192
992
-624 -96 8 -8 8 -8 8 -8 -8 -8 8 -8 8 -8 -8 -8 32
992
992
992
856 -48 72
992
-8 88 -40 48 -56 712
992
