-56 -8 -72 -40 -40 -24 -72 -72 -32 -8 -8 472
-16 8 -40 -72 824
-8 40 -72 -24 -8 -48 -72 -24 -80 -16 -80 432
32 -64 -16 -64 784
8 -8 -48 -24 -24 840
-72 -32 -40 -8 -56 -56 680
8 -40 24 -72 -64 744
-8 -40 -48 -64 -40 752
160 -80 736
32 -24 -32 -64 -32 -48 -40 -72 -80 -32 456
-72 -56 -72 -8 -8 -80 -56 584
-32 -64 -16 -72 -40 728
72 -24 -64 808
56 -16 -64 -32 -64 -72 640
32 -24 8 -40 -72 -40 -24 -72 -64 -16 -72 440
80 -32 -16 -40 -40 744
48 -24 -72 -56 -24 728
-56 -56 -72 -72 -64 -24 -72 520
72 -8 -56 -56 -72 -16 -24 -64 560
-24 8 -72 -56 -72 -40 -48 616
