20

8

6
9
-1
1
7
7
9
-1
7
8
8
6
-1
10
-1
6

6

9
3
9
-1
1
-1
7
1
-1
1
-1
8
-1
10
-1
10
9
-1
9

5
-1
9
10
-1
2
-1
3
-1
3
6
7
10
-1
5
1
2
3
10
-1

8
1
-1
9
4
5
5
10
1
3
2
-1

6
7
-1
5
8
-1
9
-1
6
-1
10
-1
7
9
-1

7
3
-1
5
7
1
6
5
-1
5
-1
6
6
-1
10
-1

5
10
6
1
5
4
9
-1
2
2
2
4
-1
3

2
1
6

1
2
10
6
4
-1
5
10
5
6

10
3
-1
6
9
7
-1
10
5
3
9
2
-1
7
5
4
4

7
10
6
1
-1
6
10
-1
9
-1
6
-1
5

7

2
-1

9
-1

6
1
8
-1
7
-1
3
8
-1

6
4
-1
4
-1
9
-1
7
2
8
-1
8
2
1
3
7
-1
8
-1

4
-1
9
9
5
-1
4
8
9

9
-1
9
10
10
-1
6
4
-1
1
7
10
