40 -40 -72 -80 -80 640
16 -40 -56 -40 -56 -24 -8 -64 -16 -72 -24 -40 -56 376
-8 -24 16 -8 -24 -24 -48 -40 -80 -64 -64 -32 464
-16 -56 -64 -72 -80 -40 -80 -72 -24 416
-16 8 -48 -72 -32 -64 -80 -8 -32 -16 536
-48 8 -40 -8 -24 -80 -80 -80 -24 528
88 -24 16 -8 -80 -72 -80 -32 -64 -64 -64 312
-8 -40 -64 -80 -16 744
48 -24 -16 -72 -48 -72 -40 -72 536
-32 -72 8 -72 -64 -80 -72 536
16 -32 -64 -24 -56 -64 -80 -24 -40 -32 480
64 -40 -56 -40 -64 -64 -48 -8 -16 -32 -40 -48 -80 288
-32 -16 -16 -64 -64 760
16 -32 64 -56 -80 704
-48 16 -48 -32 -16 -64 -8 -64 -48 -48 -80 432
-8 -16 -16 -80 840
-40 944
-80 -56 840
-64 -16 -72 -48 760
24 -24 -16 -16 -72 -64 -32 -40 -56 576
