-16 -8 192 -96 648
56 -56 -352 -80 -72 336
-24 960
-48 800 -56 64
-552 -112 312
-536 448
-832 -48 96
-912 72
-16 968
-664 320
-896 88
-792 192
992
-480 504
-824 160
992
-16 48 -72 -72 -72 -64 -64 -64 -8 440
-144 -96 -536 192
-632 352
-408 576
-888 96
152 -48 776
-712 96 -8 152
-72 -504 400
-168 -344 -120 -112 216
384 -8 -16 -24 400 -104 8
-160 -8 8 -8 40 -8 -8 -8 -8 -8 -8 -8 -8 -8 584
-192 -120 664
-112 -288 208 -152 200
-48 -48 288 -280 296
