-56 -8 16 -8 -40 -56 760
24 -16 16 -32 -64 800
120 -8 -48 -32 752
72 -64 56 -48 720
-40 -8 -64 856
48 -56 -40 -24 792
-72 -8 -8 880
-24 24 -40 880
56 -40 -48 -16 800
8 -72 -16 872
32 -24 -56 -56 -56 -64 656
-64 40 -8 -40 808
-72 -80 -24 -16 -72 -48 632
-32 -64 -72 800
-56 -72 -24 -80 -24 696
-56 -8 24 -40 -48 776
-32 -8 64 -40 -80 728
-64 -48 16 -64 -8 -16 -80 -80 -24 -56 456
-16 -8 -72 -24 -16 -72 -48 -32 -64 8 -40 -48 -24 -16 392
-64 40 -72 -64 56 -8 640
24 -56 -8 -72 -16 -24 -8 -32 -48 -8 616
48 -72 -32 -8 800
8 -40 -72 -8 -32 -24 -80 -72 592
